Division,WeightClassKg,Place,Name,Team,BodyweightKg,Best3SquatKg,Best3BenchKg,Best3DeadliftKg,TotalKg,Equipment,Event,Sex,BirthDate
Boys,51.71,1,Issac Rios,Killeen Ellison,49.53,108.86,72.57,133.81,315.25,Single-ply,SBD,M,
Boys,51.71,2,Alan Cruz,Buda Johnson,51.62,111.13,58.97,124.74,294.84,Single-ply,SBD,M,
Boys,51.71,3,Emilio Rangel,Buda Johnson,46.54,106.59,56.7,117.93,281.23,Single-ply,SBD,M,
Boys,51.71,4,David Hernandez,Smithville,51.71,83.91,43.09,79.38,206.38,Single-ply,SBD,M,
Boys,55.79,1,Julian Enriquez,Buda Johnson,55.7,127.01,70.31,138.35,335.66,Single-ply,SBD,M,
Boys,55.79,2,Jose Miranda,Kenedy,52.16,108.86,68.04,111.13,288.03,Single-ply,SBD,M,
Boys,55.79,3,Tucker Enzinger,Bastrop,53.34,102.06,72.57,99.79,274.42,Single-ply,SBD,M,
Boys,59.87,1,Reagan Villareal,Kenedy,59.87,156.49,86.18,172.37,415.04,Single-ply,SBD,M,
Boys,59.87,2,Nicholas Nguyen,Bastrop,57.88,129.27,81.65,145.15,356.07,Single-ply,SBD,M,
Boys,59.87,DQ,Paul Vargas,Killeen Ellison,59.33,136.08,,,,Single-ply,SBD,M,
Boys,67.13,1,Jacob Reece,Bastrop,64.77,185.97,111.13,190.51,487.61,Single-ply,SBD,M,
Boys,67.13,2,Xavier Cerna,Gonzales,66.13,192.78,106.59,181.44,480.81,Single-ply,SBD,M,
Boys,67.13,3,Alex Sanchez,Kenedy,65.41,183.7,95.25,190.51,469.47,Single-ply,SBD,M,
Boys,67.13,4,Diego Hernandez,Gonzales,66.32,158.76,90.72,176.9,426.38,Single-ply,SBD,M,
Boys,67.13,5,Jarian Greene,Killeen Ellison,62.87,124.74,113.4,170.1,408.23,Single-ply,SBD,M,
Boys,67.13,6,Armando Ibarra,Brookshire Royal,62.14,115.67,52.16,142.88,310.71,Single-ply,SBD,M,
Boys,67.13,7,Tyler Leonardis,Buda Johnson,62.69,115.67,61.23,127.01,303.91,Single-ply,SBD,M,
Boys,67.13,DQ,Edson Villegas,Brookshire Royal,66.86,106.59,,,,Single-ply,SBD,M,
Boys,67.13,DQ,Mason Diaz,Kenedy,62.6,,,,,Single-ply,SBD,M,
Boys,67.13,DQ,Hector Gonzales,Smithville,64.05,,,,,Single-ply,SBD,M,
Boys,74.84,1,Nico Leza,Smithville,72.03,188.24,97.52,192.78,478.54,Single-ply,SBD,M,
Boys,74.84,2,Joseph Valdez,Kenedy,71.3,179.17,97.52,172.37,449.06,Single-ply,SBD,M,
Boys,74.84,3,Cesar Matamoros,Gonzales,74.03,181.44,102.06,158.76,442.25,Single-ply,SBD,M,
Boys,74.84,4,Chad Adams,Giddings,71.03,185.97,92.99,158.76,437.72,Single-ply,SBD,M,
Boys,74.84,5,Ashton Durst,Buda Johnson,73.12,170.1,92.99,170.1,433.18,Single-ply,SBD,M,
Boys,74.84,6,Apolo Ramos,Smithville,70.13,140.61,83.91,156.49,381.02,Single-ply,SBD,M,
Boys,74.84,7,Joseph Rosales,Buda Johnson,71.12,158.76,68.04,151.95,378.75,Single-ply,SBD,M,
Boys,74.84,8,Aiden Barger,Bastrop,73.84,129.27,79.38,154.22,362.87,Single-ply,SBD,M,
Boys,74.84,9,Ryker Lawhon,Bastrop,69.4,90.72,43.09,113.4,247.21,Single-ply,SBD,M,
Boys,74.84,DQ,Clay Padgett,Smithville,74.03,201.85,106.59,,,Single-ply,SBD,M,
Boys,74.84,DQ,Joel Davilla,Kenedy,71.71,108.86,,,,Single-ply,SBD,M,
Boys,82.1,1,Jacob Bandera,Smithville,82.1,240.4,115.67,201.85,557.92,Single-ply,SBD,M,
Boys,82.1,2,Wayne Rinn,Bellville,81.01,219.99,124.74,197.31,542.04,Single-ply,SBD,M,
Boys,82.1,3,Bradley Gonzales,Buda Johnson,80.65,188.24,106.59,183.7,478.54,Single-ply,SBD,M,
Boys,82.1,4,Dustin Armstrong,Smithville,79.47,176.9,102.06,185.97,464.93,Single-ply,SBD,M,
Boys,82.1,5,Gabriel Ramos,Giddings,77.38,190.51,108.86,163.29,462.66,Single-ply,SBD,M,
Boys,82.1,6,Jacob Carter,Buda Johnson,80.74,190.51,99.79,158.76,449.06,Single-ply,SBD,M,
Boys,82.1,7,Hector Granados,Giddings,78.02,163.29,102.06,156.49,421.84,Single-ply,SBD,M,
Boys,82.1,DQ,Aldahir Mendoza,Brookshire Royal,81.19,,,,,Single-ply,SBD,M,
Boys,82.1,DQ,Adrian Flores,Kenedy,80.65,183.7,,,,Single-ply,SBD,M,
Boys,89.81,1,Christian Lopez,Bastrop,87.27,222.26,142.88,208.65,573.79,Single-ply,SBD,M,
Boys,89.81,2,Alex Marek,Bellville,86.45,204.12,113.4,226.8,544.31,Single-ply,SBD,M,
Boys,89.81,3,Lacewell Santos,Killeen Ellison,86.55,213.19,117.93,208.65,539.77,Single-ply,SBD,M,
Boys,89.81,4,Jude Dennis,Bastrop,86.45,219.99,102.06,192.78,514.83,Single-ply,SBD,M,
Boys,89.81,5,Justin High,Bellville,87.72,188.24,113.4,151.95,453.59,Single-ply,SBD,M,
Boys,89.81,6,Cullen Dees,Giddings,82.55,172.37,83.91,170.1,426.38,Single-ply,SBD,M,
Boys,89.81,7,Cole Powell,Bellville,89.81,151.95,113.4,140.61,405.97,Single-ply,SBD,M,
Boys,89.81,8,Billy Tishler,Bastrop,84.01,142.88,92.99,154.22,390.09,Single-ply,SBD,M,
Boys,89.81,9,Elvis Garcia,Buda Johnson,87.54,147.42,90.72,140.61,378.75,Single-ply,SBD,M,
Boys,89.81,DQ,Jose Navarro,Brookshire Royal,85.18,142.88,,,,Single-ply,SBD,M,
Boys,89.81,DQ,Jj Smith,Killeen Ellison,88.09,,,,,Single-ply,SBD,M,
Boys,89.81,DQ,Georg De los Santos,Kenedy,83.19,183.7,,,,Single-ply,SBD,M,
Boys,99.79,1,Samuel Segura,Giddings,98.16,276.69,192.78,258.55,728.02,Single-ply,SBD,M,
Boys,99.79,2,James Williams,Killeen Ellison,92.35,242.67,106.59,226.8,576.06,Single-ply,SBD,M,
Boys,99.79,3,Ezekiel Sherridan,Killeen Ellison,99.25,210.92,102.06,235.87,548.85,Single-ply,SBD,M,
Boys,99.79,4,Coby Smith,Giddings,96.25,213.19,117.93,197.31,528.44,Single-ply,SBD,M,
Boys,99.79,5,Dalton Bills,Bellville,92.26,183.7,136.08,183.7,503.49,Single-ply,SBD,M,
Boys,99.79,6,Clayton Sherman,Bastrop,95.07,181.44,111.13,174.63,467.2,Single-ply,SBD,M,
Boys,99.79,7,Margarito Calderon,Brookshire Royal,95.71,181.44,111.13,172.37,464.93,Single-ply,SBD,M,
Boys,99.79,8,Case Jordan,Buda Johnson,99.34,204.12,83.91,174.63,462.66,Single-ply,SBD,M,
Boys,99.79,9,Tristan Boorman,Buda Johnson,92.35,174.63,92.99,172.37,439.98,Single-ply,SBD,M,
Boys,99.79,10,Layne Thiele,Gonzales,92.8,163.29,88.45,154.22,405.97,Single-ply,SBD,M,
Boys,99.79,11,Cody Parnell,Smithville,95.44,122.47,79.38,142.88,344.73,Single-ply,SBD,M,
Boys,99.79,DQ,Melvin Evans,Smithville,96.71,,,,,Single-ply,SBD,M,
Boys,99.79,DQ,Alex Gonsalez,Kenedy,97.98,190.51,,,,Single-ply,SBD,M,
Boys,99.79,DQ,Ron Murrell,Killeen Ellison,99.79,192.78,,,,Single-ply,SBD,M,
Boys,109.77,1,Amir Soliman,Killeen Ellison,106.87,238.14,145.15,226.8,610.08,Single-ply,SBD,M,
Boys,109.77,2,Christian Almaguer,Gonzales,105.6,204.12,142.88,199.58,546.58,Single-ply,SBD,M,
Boys,109.77,3,Andrew Rodriguez,Giddings,100.61,201.85,122.47,181.44,505.76,Single-ply,SBD,M,
Boys,109.77,4,Gabe Dienhart,Bastrop,102.6,117.93,61.23,138.35,317.51,Single-ply,SBD,M,
Boys,124.74,1,Daylan Littlejohn,Killeen Ellison,122.2,249.48,142.88,235.87,628.23,Single-ply,SBD,M,
Boys,124.74,2,Cayden Scott,Bastrop,119.39,208.65,129.27,201.85,539.77,Single-ply,SBD,M,
Boys,124.74,3,Slivano Reyes,Gonzales,114.17,195.04,145.15,172.37,512.56,Single-ply,SBD,M,
Boys,124.74,4,Brenden Rodriguez,Gonzales,122.11,204.12,136.08,163.29,503.49,Single-ply,SBD,M,
Boys,124.74,5,Garrett Tittle,Caldwell,115.3,176.9,129.27,165.56,471.74,Single-ply,SBD,M,
Boys,124.74,6,Cooper Lovelace,Bastrop,121.11,108.86,111.13,158.76,378.75,Single-ply,SBD,M,
Boys,124.74,7,Curtis Burleson,Smithville,110.22,115.67,70.31,111.13,297.1,Single-ply,SBD,M,
Boys,124.74,DQ,Woodrow Beltran,Giddings,115.21,,,,,Single-ply,SBD,M,
Boys,124.74,DQ,Robert Gregg,Smithville,122.92,226.8,138.35,,,Single-ply,SBD,M,
Boys,124.74+,1,Chris Sifuentes,Giddings,145.24,308.44,161.03,263.08,732.55,Single-ply,SBD,M,
Boys,124.74+,2,Keanu Ramirez,Killeen Ellison,153.86,226.8,176.9,238.14,641.83,Single-ply,SBD,M,
Boys,124.74+,3,Ethan Psencik,Smithville,130.45,226.8,158.76,226.8,612.35,Single-ply,SBD,M,
Boys,124.74+,4,Ryan Gomez,Gonzales,127.55,226.8,142.88,215.46,585.13,Single-ply,SBD,M,
Boys,124.74+,5,Eduardo Arteaga,Brookshire Royal,128,208.65,127.01,235.87,571.53,Single-ply,SBD,M,
Boys,124.74+,6,Jusiah Sampelton,Giddings,126.64,208.65,129.27,201.85,539.77,Single-ply,SBD,M,
Boys,124.74+,7,Brett Johns #3,Gonzales,138.35,183.7,149.69,195.04,528.44,Single-ply,SBD,M,
Boys,124.74+,8,Brayden Bittick,Smithville,135.35,154.22,111.13,165.56,430.91,Single-ply,SBD,M,
Boys,,NS,Chris Sanders,Smithville,,,,,,Single-ply,SBD,M,
Boys,,NS,Alvin Amador,Kenedy,,,,,,Single-ply,SBD,M,
Boys,,NS,Humberto Mares,Brookshire Royal,,,,,,Single-ply,SBD,M,
Boys,,NS,Jackson Baust,Bellville,,,,,,Single-ply,SBD,M,
Boys,,NS,Omar Adan,Bellville,,,,,,Single-ply,SBD,M,
Boys,,NS,Tyler Shaver,Gonzales,,,,,,Single-ply,SBD,M,
Boys,,NS,Anthony Sandoval,Caldwell,,,,,,Single-ply,SBD,M,
Boys,,NS,Colbie Pullin,Gonzales,,,,,,Single-ply,SBD,M,
Boys,,NS,Delvin Morris,Caldwell,,,,,,Single-ply,SBD,M,
Boys,,NS,Daniel Torres,Caldwell,,,,,,Single-ply,SBD,M,
